{
	"type": "Collection",
	"properties": {
		"userId": {
			"name": "userId",
			"type": "string",
			"typeLabel": "string",
			"required": true,
			"id": "userId",
			"order": 0
		},
		"campaignId": {
			"name": "campaignId",
			"type": "string",
			"typeLabel": "string",
			"required": true,
			"id": "campaignId",
			"order": 1
		},
		"scanDateTime": {
			"name": "scanDateTime",
			"type": "number",
			"typeLabel": "number",
			"required": false,
			"id": "scanDateTime",
			"order": 2
		},
		"dateTimeUpdated": {
			"name": "dateTimeUpdated",
			"type": "string",
			"typeLabel": "string",
			"required": false,
			"id": "dateTimeUpdated",
			"order": 3
		},
		"active": {
			"name": "active",
			"type": "number",
			"typeLabel": "number",
			"required": false,
			"id": "active",
			"order": 4
		},
		"archive": {
			"name": "archive",
			"type": "number",
			"typeLabel": "number",
			"required": false,
			"id": "archive",
			"order": 5
		}
	}
}