{
	"type": "Collection",
	"properties": {
		"formSchema": {
			"name": "formSchema",
			"type": "string",
			"typeLabel": "string",
			"required": false,
			"id": "formSchema",
			"order": 0
		},
		"formTitle": {
			"name": "formTitle",
			"type": "string",
			"typeLabel": "string",
			"required": false,
			"id": "formTitle",
			"order": 1
		},
		"formUrl": {
			"name": "formUrl",
			"type": "string",
			"typeLabel": "string",
			"required": false,
			"id": "formUrl",
			"order": 2
		},
		"dateTimeCreated": {
			"name": "dateTimeCreated",
			"type": "string",
			"typeLabel": "string",
			"required": false,
			"id": "dateTimeCreated",
			"order": 3
		},
		"dateTimeUpdated": {
			"name": "dateTimeUpdated",
			"type": "string",
			"typeLabel": "string",
			"required": false,
			"id": "dateTimeUpdated",
			"order": 4
		}
	}
}